3 Stable FH Estimates over T Time Periods: The Multivariate Fay Herriot Modelling Approach – EUPM: Poland
…
direct_dt <- 
  survey_dt |>
  mutate(pov_indicator = ifelse(income < povline, 1, 0)) |>
  group_by(!!!syms(area_vars), !!sym(year_var)) |>
  summarise(direct_povrate = weighted.mean(x = pov_indicator, 
                                           w = !!sym(weight_var),
                                           na.rm = TRUE),
            .groups = "drop")

Here is what the results look like:

direct_dt

# A tibble: 156 × 4
    prov provlab   year direct_povrate
   <int> <fct>    <int>          <dbl>
 1     1 Alava     2012          0.244
 2     1 Alava     2013          0.312
 3     1 Alava     2014          0.414
 4     2 Albacete  2012          0.159
 5     2 Albacete  2013          0.173
 6     2 Albacete  2014          0.211
 7     3 Alicante  2012          0.163
 8     3 Alicante  2013          0.163
 9     3 Alicante  2014          0.227
10     4 Almeria   2012          0.297
# ℹ 146 more rows
…
